{
  "type": "service_account",
  "project_id": "e-and-e-postgraduate-system",
  "private_key_id": "f3049d583b01e49b52db16e6c639971da1ec4c78",
  "private_key": "-----BEGIN PRIVATE KEY-----\nMIIEvwIBADANBgkqhkiG9w0BAQEFAASCBKkwggSlAgEAAoIBAQC+5/zixO5kIShj\nYPfzAK2E+kTytn6yD2W0fJ12aZyi07DhI5THZ28mgCRuobMy3Nq3qz97wQfmE/gu\n25JItDT/ZXkYwCn2+UY10Ctorgn3dHUAOr7PzEobdOvS4TmrWDIbeiR8S2iQLpgJ\nNNZ2cCJRdWQgey4Yfs5s3QHofbeeyNT/yv0LDXg+9S1imuI0yGHgMW7eGX7r8xG8\nkC6UaOL63958YJ1gRSNPDtufyEhSeMqFFepTzRzdiPNk384O/MOFPq7OuWTQzya+\nfLs1vyHcgs9ibpRWPfrUIbsuodqBYkJbencCyXEKq1mEB5vmnT6nu70f7CY5sJIm\nBw+WHLiNAgMBAAECggEAB7oC+binv2S6Kj+H+Y1a+Ilalgo92X4XCzWJ9/txTAPO\nYmZaxLFShdfk4Zdo1dOrhIiJUrxu0eiYAGmBo7CrfnTAcHiCmkzfgxkQULXOkHXl\nsGMwSt/FVhQm4UudVmqE6KjKZj91FXTVUXYSgguqz+o06b2ikXo8Z5qQU7UW4/XC\nBdat3mY8oEa3k0qak+rsoUCwxMtnZSvuN2bIzJnZOJzOXA0RyGmJa8y1HDlC6vKs\nyFRde8Po73Y48IQrF55WJ73INjIg5LuIlijF3t2rueCL/vTfRv1hCaTeKu3Mjl+G\nwlHB9OCGeOHp5XVv6jjemqIsQvAoe3TF4elok2EP7wKBgQDkBpXvi5yfh/n4lJTf\nZ1s56bwnRROahYW3PgvsjzH9TQnSlyR/rz2DpruF87LJfn2dyTob5o7uwAVl/ziS\nEfIeKniIGBv8gb6QM/4f7orhXLL86VsjJEPG3OJgltmjgmdDQqBeedAVW/u6+P1v\nqtVQHwGGn4W9XERFjH/FcUglSwKBgQDWU57DLOmIgu2ECniuQVaE74bLb4GBtWQy\nElNnMFdkEPO6EQKcRQyojW8v8T9qov3zjLKpZsltusQg/YFwallftpBNOVtV/B6A\n2vOTvJubsvxHTSCLmtLGX5Y7xtXTFrbxNtFJW4SwVTrP35nYG3hTV2H2T1TBZ4IU\nEt16COBqhwKBgQCoowY4BnRqt1FzOc9v+SxKhEYWdMuut5jQkB6ZcL1zq4ncKNNh\nauR/fMuqoTRUOCwGiU9kWvrSL0jOyhW4UXVSQe6qF8p60Cly1EDYtL4ZNUlaKeqw\n7p0BcVIqROXoOwTLhXa86DGv2jstZ/9mmlzvyD6EpW1vQdFr7iCAkOreSQKBgQCu\nWoQy/pxUgz45RlN6XojFyB197Y4LOMbzvNjAfyD4tJmxahkXi0yK6dPjynvugf3Z\nXUIScR23+FGJDPF5w+pE5L1rNRfKUTl3VacFLk/gT7DPSD0LlL2WxzfuFQjpmfbl\nL9T9uketMwiPBrWeimpOUi3NNCgc1dmJ/vbRSdtWjQKBgQDDfwBEvBHlMpWCOoGs\n/nxOxRCwi3SOsxxtFiD+jf0brNtKO0kv9VW3A2eWh75+/hinFSaoUQCb29bEs0i3\nyDl9bHhhd6TEe489XWfSzgTdxLjumRbf0hxduXqngM22Xc+VWt8uQys2m7OZVpFk\n0I0dQVg/LCZhkNMRm8JmKSb5JQ==\n-----END PRIVATE KEY-----\n",
  "client_email": "firebase-adminsdk-x5kkb@e-and-e-postgraduate-system.iam.gserviceaccount.com",
  "client_id": "115236472821735262067",
  "auth_uri": "https://accounts.google.com/o/oauth2/auth",
  "token_uri": "https://oauth2.googleapis.com/token",
  "auth_provider_x509_cert_url": "https://www.googleapis.com/oauth2/v1/certs",
  "client_x509_cert_url": "https://www.googleapis.com/robot/v1/metadata/x509/firebase-adminsdk-x5kkb%40e-and-e-postgraduate-system.iam.gserviceaccount.com"
}
